{
  "paths": [
    {
      "name": "/",
      "lambdaFunction": "claps",
      "privacy": {
        "open": true
      },
      "policyResourceName": "/"
    }
  ],
  "resourceName": "clapsapi",
  "apiName": "clapsapi",
  "functionArns": [
    {
      "lambdaFunction": "claps"
    }
  ],
  "privacy": {
    "auth": 0,
    "unauth": 0,
    "authRoleName": "amplify-claps-dev-193708-authRole",
    "unAuthRoleName": "amplify-claps-dev-193708-unauthRole"
  },
  "dependsOn": [
    {
      "category": "function",
      "resourceName": "claps",
      "attributes": [
        "Name",
        "Arn"
      ]
    }
  ]
}