{
  "function": {
    "claps": {
      "build": true,
      "providerPlugin": "awscloudformation",
      "service": "Lambda"
    }
  },
  "api": {
    "clapsapi": {
      "service": "API Gateway",
      "providerPlugin": "awscloudformation",
      "dependsOn": [
        {
          "category": "function",
          "resourceName": "claps",
          "attributes": [
            "Name",
            "Arn"
          ]
        }
      ]
    }
  }
}